<svg width="1920" height="615" viewBox="0 0 1920 615" fill="none" xmlns="http://www.w3.org/2000/svg">
  <g clip-path="url(#clip0_1_16)">
    <rect width="1920" height="615" transform="matrix(-1 0 0 1 1920 0)" fill="url(#paint0_linear_1_16)" />
    <g filter="url(#filter0_f_1_16)">
      <path d="M2394.03 252.67C2215.68 218.633 1690.88 251.398 1579.2 328.41C1467.52 405.421 1718.4 506.452 1989.62 531.554C2260.84 556.655 2191.36 496.749 2303.04 419.738C2414.72 342.726 2572.39 286.707 2394.03 252.67Z" fill="#3973F5" />
    </g>
    <g filter="url(#filter1_f_1_16)">
      <path d="M1331.3 -84.2824C803.113 -212.427 991.678 -212.903 736.985 -189.348C482.292 -165.792 354.826 -171.012 428.365 -89.4308C501.903 -7.8496 697.664 -25.6804 562.364 185.591C427.064 396.863 1859.49 43.8618 1331.3 -84.2824Z" fill="#83D4FF" />
    </g>
    <g filter="url(#filter2_f_1_16)">
      <path d="M-623.97 736.965C-431.732 795.435 75.3565 576.086 274.775 691.017C474.194 805.949 662.959 629.29 732 483.64C801.04 337.989 110.949 327.396 -274.343 441.736C-659.634 556.077 -816.208 678.496 -623.97 736.965Z" fill="#45B7F4" />
    </g>
    <g filter="url(#filter3_f_1_16)">
      <path d="M747.283 4.30127C676.049 148.012 1165.62 8.76612 1593.74 71.5576C2021.86 134.349 1536.13 -138.482 1343.89 -196.952C1151.65 -255.421 907.26 -311.355 724.72 -249.779C542.18 -188.202 818.518 -139.409 747.283 4.30127Z" fill="#398BF5" />
    </g>
  </g>
  <defs>
    <filter id="filter0_f_1_16" x="1351.99" y="39.2636" width="1322.57" height="698.089" filterUnits="userSpaceOnUse" color-interpolation-filters="sRGB">
      <feFlood flood-opacity="0" result="BackgroundImageFix" />
      <feBlend mode="normal" in="SourceGraphic" in2="BackgroundImageFix" result="shape" />
      <feGaussianBlur stdDeviation="100" result="effect1_foregroundBlur_1_16" />
    </filter>
    <filter id="filter1_f_1_16" x="207.71" y="-401.261" width="1441.04" height="852.765" filterUnits="userSpaceOnUse" color-interpolation-filters="sRGB">
      <feFlood flood-opacity="0" result="BackgroundImageFix" />
      <feBlend mode="normal" in="SourceGraphic" in2="BackgroundImageFix" result="shape" />
      <feGaussianBlur stdDeviation="100" result="effect1_foregroundBlur_1_16" />
    </filter>
    <filter id="filter2_f_1_16" x="-906.141" y="164.197" width="1842.96" height="782.875" filterUnits="userSpaceOnUse" color-interpolation-filters="sRGB">
      <feFlood flood-opacity="0" result="BackgroundImageFix" />
      <feBlend mode="normal" in="SourceGraphic" in2="BackgroundImageFix" result="shape" />
      <feGaussianBlur stdDeviation="100" result="effect1_foregroundBlur_1_16" />
    </filter>
    <filter id="filter3_f_1_16" x="461.218" y="-476.592" width="1503.87" height="757.472" filterUnits="userSpaceOnUse" color-interpolation-filters="sRGB">
      <feFlood flood-opacity="0" result="BackgroundImageFix" />
      <feBlend mode="normal" in="SourceGraphic" in2="BackgroundImageFix" result="shape" />
      <feGaussianBlur stdDeviation="100" result="effect1_foregroundBlur_1_16" />
    </filter>
    <linearGradient id="paint0_linear_1_16" x1="1140.47" y1="628.37" x2="977.674" y2="-125.81" gradientUnits="userSpaceOnUse">
      <stop stop-color="#398BF5" />
      <stop offset="1" stop-color="#45B7F4" />
    </linearGradient>
    <clipPath id="clip0_1_16">
      <rect width="1920" height="615" fill="white" transform="matrix(-1 0 0 1 1920 0)" />
    </clipPath>
  </defs>
</svg>